{
  "unpublishedPage": {
    "name": "Page1",
    "slug": "page1",
    "layouts": [
      {
        "viewMode": false,
        "dsl": {
          "widgetName": "MainContainer",
          "backgroundColor": "none",
          "rightColumn": 4896,
          "snapColumns": 64,
          "detachFromLayout": true,
          "widgetId": "0",
          "topRow": 0,
          "bottomRow": 1290,
          "containerStyle": "none",
          "snapRows": 125,
          "parentRowSpace": 1,
          "type": "CANVAS_WIDGET",
          "canExtend": true,
          "version": 59,
          "minHeight": 1292,
          "dynamicTriggerPathList": [],
          "parentColumnSpace": 1,
          "dynamicBindingPathList": [],
          "leftColumn": 0,
          "children": [
            {
              "boxShadow": "{{appsmith.theme.boxShadow.appBoxShadow}}",
              "widgetName": "Table1",
              "defaultPageSize": 0,
              "columnOrder": [
                "Student_Name",
                "Gender",
                "Class_Level",
                "Home_State",
                "Major",
                "Extracurricular_Activity",
                "rowIndex"
              ],
              "isVisibleDownload": true,
              "dynamicPropertyPathList": [],
              "displayName": "Table",
              "iconSVG": "/static/media/icon.db8a9cbd.svg",
              "topRow": 1,
              "bottomRow": 71,
              "isSortable": true,
              "parentRowSpace": 10,
              "type": "TABLE_WIDGET",
              "defaultSelectedRow": "0",
              "hideCard": false,
              "animateLoading": true,
              "dynamicTriggerPathList": [],
              "dynamicBindingPathList": [
                {
                  "key": "tableData"
                },
                {
                  "key": "accentColor"
                },
                {
                  "key": "borderRadius"
                },
                {
                  "key": "boxShadow"
                },
                {
                  "key": "childStylesheet.button.buttonColor"
                },
                {
                  "key": "childStylesheet.button.borderRadius"
                },
                {
                  "key": "childStylesheet.menuButton.menuColor"
                },
                {
                  "key": "childStylesheet.menuButton.borderRadius"
                },
                {
                  "key": "childStylesheet.iconButton.menuColor"
                },
                {
                  "key": "childStylesheet.iconButton.borderRadius"
                },
                {
                  "key": "primaryColumns.Student_Name.computedValue"
                },
                {
                  "key": "primaryColumns.Gender.computedValue"
                },
                {
                  "key": "primaryColumns.Class_Level.computedValue"
                },
                {
                  "key": "primaryColumns.Home_State.computedValue"
                },
                {
                  "key": "primaryColumns.Major.computedValue"
                },
                {
                  "key": "primaryColumns.Extracurricular_Activity.computedValue"
                },
                {
                  "key": "primaryColumns.rowIndex.computedValue"
                }
              ],
              "leftColumn": 0,
              "primaryColumns": {
                "Student_Name": {
                  "index": 0,
                  "width": 150,
                  "id": "Student_Name",
                  "horizontalAlignment": "LEFT",
                  "verticalAlignment": "CENTER",
                  "columnType": "text",
                  "textColor": "",
                  "textSize": "0.875rem",
                  "enableFilter": true,
                  "enableSort": true,
                  "isVisible": true,
                  "isDisabled": false,
                  "isCellVisible": true,
                  "isDerived": false,
                  "label": "Student_Name",
                  "computedValue": "{{Table1.sanitizedTableData.map((currentRow) => ( currentRow.Student_Name))}}",
                  "cellBackground": ""
                },
                "Gender": {
                  "index": 1,
                  "width": 150,
                  "id": "Gender",
                  "horizontalAlignment": "LEFT",
                  "verticalAlignment": "CENTER",
                  "columnType": "text",
                  "textColor": "",
                  "textSize": "0.875rem",
                  "enableFilter": true,
                  "enableSort": true,
                  "isVisible": true,
                  "isDisabled": false,
                  "isCellVisible": true,
                  "isDerived": false,
                  "label": "Gender",
                  "computedValue": "{{Table1.sanitizedTableData.map((currentRow) => ( currentRow.Gender))}}",
                  "cellBackground": ""
                },
                "Class_Level": {
                  "index": 2,
                  "width": 150,
                  "id": "Class_Level",
                  "horizontalAlignment": "LEFT",
                  "verticalAlignment": "CENTER",
                  "columnType": "text",
                  "textColor": "",
                  "textSize": "0.875rem",
                  "enableFilter": true,
                  "enableSort": true,
                  "isVisible": true,
                  "isDisabled": false,
                  "isCellVisible": true,
                  "isDerived": false,
                  "label": "Class_Level",
                  "computedValue": "{{Table1.sanitizedTableData.map((currentRow) => ( currentRow.Class_Level))}}",
                  "cellBackground": ""
                },
                "Home_State": {
                  "index": 3,
                  "width": 150,
                  "id": "Home_State",
                  "horizontalAlignment": "LEFT",
                  "verticalAlignment": "CENTER",
                  "columnType": "text",
                  "textColor": "",
                  "textSize": "0.875rem",
                  "enableFilter": true,
                  "enableSort": true,
                  "isVisible": true,
                  "isDisabled": false,
                  "isCellVisible": true,
                  "isDerived": false,
                  "label": "Home_State",
                  "computedValue": "{{Table1.sanitizedTableData.map((currentRow) => ( currentRow.Home_State))}}",
                  "cellBackground": ""
                },
                "Major": {
                  "index": 4,
                  "width": 150,
                  "id": "Major",
                  "horizontalAlignment": "LEFT",
                  "verticalAlignment": "CENTER",
                  "columnType": "text",
                  "textColor": "",
                  "textSize": "0.875rem",
                  "enableFilter": true,
                  "enableSort": true,
                  "isVisible": true,
                  "isDisabled": false,
                  "isCellVisible": true,
                  "isDerived": false,
                  "label": "Major",
                  "computedValue": "{{Table1.sanitizedTableData.map((currentRow) => ( currentRow.Major))}}",
                  "cellBackground": ""
                },
                "Extracurricular_Activity": {
                  "index": 5,
                  "width": 150,
                  "id": "Extracurricular_Activity",
                  "horizontalAlignment": "LEFT",
                  "verticalAlignment": "CENTER",
                  "columnType": "text",
                  "textColor": "",
                  "textSize": "0.875rem",
                  "enableFilter": true,
                  "enableSort": true,
                  "isVisible": true,
                  "isDisabled": false,
                  "isCellVisible": true,
                  "isDerived": false,
                  "label": "Extracurricular_Activity",
                  "computedValue": "{{Table1.sanitizedTableData.map((currentRow) => ( currentRow.Extracurricular_Activity))}}",
                  "cellBackground": ""
                },
                "rowIndex": {
                  "index": 6,
                  "width": 150,
                  "id": "rowIndex",
                  "horizontalAlignment": "LEFT",
                  "verticalAlignment": "CENTER",
                  "columnType": "text",
                  "textColor": "",
                  "textSize": "0.875rem",
                  "enableFilter": true,
                  "enableSort": true,
                  "isVisible": true,
                  "isDisabled": false,
                  "isCellVisible": true,
                  "isDerived": false,
                  "label": "rowIndex",
                  "computedValue": "{{Table1.sanitizedTableData.map((currentRow) => ( currentRow.rowIndex))}}",
                  "cellBackground": ""
                }
              },
              "delimiter": ",",
              "key": "5x08anz4ac",
              "derivedColumns": {},
              "isDeprecated": false,
              "rightColumn": 64,
              "textSize": "0.875rem",
              "widgetId": "f4ixmcyyog",
              "accentColor": "{{appsmith.theme.colors.primaryColor}}",
              "isVisibleFilters": true,
              "tableData": "{{FetchClassDataFromExampleSheet.data}}",
              "isVisible": true,
              "label": "Data",
              "searchKey": "",
              "enableClientSideSearch": true,
              "version": 3,
              "totalRecordsCount": 0,
              "parentId": "0",
              "renderMode": "CANVAS",
              "isLoading": false,
              "horizontalAlignment": "LEFT",
              "isVisibleSearch": true,
              "childStylesheet": {
                "button": {
                  "buttonColor": "{{appsmith.theme.colors.primaryColor}}",
                  "borderRadius": "{{appsmith.theme.borderRadius.appBorderRadius}}",
                  "boxShadow": "none"
                },
                "menuButton": {
                  "menuColor": "{{appsmith.theme.colors.primaryColor}}",
                  "borderRadius": "{{appsmith.theme.borderRadius.appBorderRadius}}",
                  "boxShadow": "none"
                },
                "iconButton": {
                  "menuColor": "{{appsmith.theme.colors.primaryColor}}",
                  "borderRadius": "{{appsmith.theme.borderRadius.appBorderRadius}}",
                  "boxShadow": "none"
                }
              },
              "borderRadius": "{{appsmith.theme.borderRadius.appBorderRadius}}",
              "isVisiblePagination": true,
              "verticalAlignment": "CENTER",
              "columnSizeMap": {
                "task": 245,
                "step": 62,
                "status": 75
              }
            }
          ]
        },
        "layoutOnLoadActions": [
          [
            {
              "id": "Page1_FetchClassDataFromExampleSheet",
              "name": "FetchClassDataFromExampleSheet",
              "confirmBeforeExecute": false,
              "pluginType": "SAAS",
              "jsonPathKeys": [
                "parseInt(ExampleSheetJSO.sheets.filter(sheet => sheet.name === ExampleSheetJSO.sheet)[0].maxRow)"
              ],
              "timeoutInMillisecond": 10000
            }
          ]
        ],
        "widgetNames": [
          "MainContainer",
          "Table1"
        ],
        "validOnPageLoadActions": true,
        "id": "Page1",
        "deleted": false,
        "policies": [],
        "userPermissions": []
      }
    ],
    "userPermissions": [],
    "policies": []
  },
  "deleted": false,
  "policies": [],
  "gitSyncId": "629ed231aeaa1802518ad2db_629ed231aeaa1802518ad2dd"
}